<?xml version="1.0" encoding="UTF-8" standalone="no"?>
<!-- Created with Inkscape (http://www.inkscape.org/) -->

<svg
   width="12.700001mm"
   height="12.700001mm"
   viewBox="0 0 48.000003 48.000003"
   version="1.1"
   id="svg1"
   xml:space="preserve"
   xmlns="http://www.w3.org/2000/svg"
   xmlns:svg="http://www.w3.org/2000/svg"><defs
     id="defs1" /><rect
     style="opacity:1;fill:none;fill-opacity:1;stroke:#dfdfdf;stroke-width:4;stroke-linecap:round;stroke-linejoin:round;stroke-dasharray:none;stroke-opacity:1"
     id="rect5"
     width="40.823006"
     height="29.922129"
     x="3.7933748"
     y="8.5654449"
     ry="0.10238519" /><path
     style="opacity:1;fill:none;fill-opacity:1;stroke:#dfdfdf;stroke-width:1.47741;stroke-linecap:round;stroke-linejoin:round;stroke-dasharray:none;stroke-opacity:1"
     d="m 3.9373502,30.150284 c 14.4399088,-9.258702 27.0801428,0.04629 40.6202138,0.06944 v 8.1208 H 3.7928021 Z"
     id="path5" /><circle
     style="opacity:1;fill:none;fill-opacity:1;stroke:#dfdfdf;stroke-width:1.51871;stroke-linecap:round;stroke-linejoin:round;stroke-dasharray:none;stroke-opacity:1"
     id="path6"
     cx="31.38253"
     cy="18.080172"
     r="3.9078968" /></svg>
